<?xml version="1.0" encoding="utf-8"?>
<?xml-stylesheet type='text/xsl' href='ConversionLogFile.xsl'?>
<LogFile projectName="C738.a FD120 Samson_V15" typeText="Tipo" messageText="Messaggio" timeText="Ora">
  <MessageCell ServiceId="80" MessageId="30" MessageClass="Information" Timestamp="02/07/2019 16:04:41">
    <Number ServiceNumber="80" MessageNumber="30" />
    <Text FeedbackText="Aggiornamento avviato" />
    <Help HelpId="-1" />
  </MessageCell>
  <MessageCell ServiceId="80" MessageId="30" MessageClass="Information" Timestamp="02/07/2019 16:04:41">
    <Number ServiceNumber="80" MessageNumber="30" />
    <Text FeedbackText="Lettura in corso delle informazioni della versione precedente del progetto/della biblioteca." />
    <Help HelpId="-1" />
  </MessageCell>
  <MessageCell ServiceId="80" MessageId="30" MessageClass="Information" Timestamp="02/07/2019 16:04:41">
    <Number ServiceNumber="80" MessageNumber="30" />
    <Text FeedbackText="Importazione dei dati nel nuovo progetto/nella nuova biblioteca in corso..." />
    <Help HelpId="-1" />
  </MessageCell>
  <MessageCell ServiceId="80" MessageId="30" MessageClass="Information" Timestamp="02/07/2019 16:04:49">
    <Number ServiceNumber="80" MessageNumber="30" />
    <Text FeedbackText="Aggiornamento in corso del nuovo progetto/della nuova biblioteca." />
    <Help HelpId="-1" />
  </MessageCell>
  <MessageCell ServiceId="80" MessageId="30" MessageClass="Information" Timestamp="02/07/2019 16:04:52">
    <Number ServiceNumber="80" MessageNumber="30" />
    <Text FeedbackText="Aggiornamento in corso del nuovo progetto/della nuova biblioteca." />
    <Help HelpId="-1" />
  </MessageCell>
  <Details ServiceId="80" MessageId="30" Timestamp="02/07/2019 16:04:54" Debug="false">
    <Text>HmiConvert: Started conversion section.</Text>
  </Details>
  <Details ServiceId="80" MessageId="30" Timestamp="02/07/2019 16:04:54" Debug="false">
    <Text>HmiConvert: Starting conversion step &lt;Siemens.Simatic.Hmi.Device.DeviceManagers.Scan:Siemens.Simatic.Hmi.Utah.Device.Upgrade.DeviceConverter.ConvertHmiDeviceToV15&gt;.</Text>
  </Details>
  <Details ServiceId="80" MessageId="30" Timestamp="02/07/2019 16:04:54" Debug="false">
    <Text>HmiConvert: Finished conversion step &lt;Siemens.Simatic.Hmi.Device.DeviceManagers.Scan:Siemens.Simatic.Hmi.Utah.Device.Upgrade.DeviceConverter.ConvertHmiDeviceToV15&gt;.</Text>
  </Details>
  <Details ServiceId="80" MessageId="30" Timestamp="02/07/2019 16:04:54" Debug="false">
    <Text>HmiConvert: Starting conversion step &lt;Siemens.Simatic.Hmi.Styles.Managers.Scan:Siemens.Simatic.Hmi.Utah.Styles.HmiStyleConverter.ConvertHmiStyleFromV14ToV15&gt;.</Text>
  </Details>
  <Details ServiceId="80" MessageId="30" Timestamp="02/07/2019 16:04:55" Debug="false">
    <Text>HmiConvert: Finished conversion step &lt;Siemens.Simatic.Hmi.Styles.Managers.Scan:Siemens.Simatic.Hmi.Utah.Styles.HmiStyleConverter.ConvertHmiStyleFromV14ToV15&gt;.</Text>
  </Details>
  <Details ServiceId="80" MessageId="30" Timestamp="02/07/2019 16:04:55" Debug="false">
    <Text>HmiConvert is waiting for external dependency: Siemens.Simatic.Lang.SPLConvert</Text>
  </Details>
  <Details ServiceId="80" MessageId="30" Timestamp="02/07/2019 16:05:11" Debug="false">
    <Text>HmiConvert: Started conversion section.</Text>
  </Details>
  <Details ServiceId="80" MessageId="30" Timestamp="02/07/2019 16:05:11" Debug="false">
    <Text>HmiConvert: Starting conversion step &lt;Siemens.Simatic.Hmi.Tag.Managers.Scan:Siemens.Simatic.Hmi.Utah.Tag.V13AndV14TagsRepairer.RepairV13AndV14Tags&gt;.</Text>
  </Details>
  <Details ServiceId="80" MessageId="30" Timestamp="02/07/2019 16:05:11" Debug="false">
    <Text>HmiConvert: Finished conversion step &lt;Siemens.Simatic.Hmi.Tag.Managers.Scan:Siemens.Simatic.Hmi.Utah.Tag.V13AndV14TagsRepairer.RepairV13AndV14Tags&gt;.</Text>
  </Details>
  <Details ServiceId="80" MessageId="30" Timestamp="02/07/2019 16:05:11" Debug="false">
    <Text>HmiConvert: Starting conversion step &lt;Siemens.Simatic.Hmi.Communication.Managers.Scan:Siemens.Simatic.Hmi.Utah.Communication.AddressTypeSafeConverter.ConvertTypeSafeAddress&gt;.</Text>
  </Details>
  <Details ServiceId="80" MessageId="30" Timestamp="02/07/2019 16:05:11" Debug="false">
    <Text>HmiConvert: Finished conversion step &lt;Siemens.Simatic.Hmi.Communication.Managers.Scan:Siemens.Simatic.Hmi.Utah.Communication.AddressTypeSafeConverter.ConvertTypeSafeAddress&gt;.</Text>
  </Details>
  <Details ServiceId="80" MessageId="30" Timestamp="02/07/2019 16:05:11" Debug="false">
    <Text>HmiConvert: Starting conversion step &lt;Siemens.Simatic.Hmi.Communication.Managers.Scan:Siemens.Simatic.Hmi.Utah.Communication.OpcUaConverter.ConvertConnection&gt;.</Text>
  </Details>
  <Details ServiceId="80" MessageId="30" Timestamp="02/07/2019 16:05:11" Debug="false">
    <Text>HmiConvert: Finished conversion step &lt;Siemens.Simatic.Hmi.Communication.Managers.Scan:Siemens.Simatic.Hmi.Utah.Communication.OpcUaConverter.ConvertConnection&gt;.</Text>
  </Details>
  <Details ServiceId="80" MessageId="30" Timestamp="02/07/2019 16:05:11" Debug="false">
    <Text>HmiConvert: Starting conversion step &lt;Siemens.Simatic.Hmi.Globalization.Managers.Scan:Siemens.Simatic.Hmi.Utah.Globalization.NotUsedTextCategoryDeleter.DeleteNotUsedTextCategoriesInLibraryContext&gt;.</Text>
  </Details>
  <Details ServiceId="80" MessageId="30" Timestamp="02/07/2019 16:05:11" Debug="false">
    <Text>HmiConvert: Finished conversion step &lt;Siemens.Simatic.Hmi.Globalization.Managers.Scan:Siemens.Simatic.Hmi.Utah.Globalization.NotUsedTextCategoryDeleter.DeleteNotUsedTextCategoriesInLibraryContext&gt;.</Text>
  </Details>
  <Details ServiceId="80" MessageId="30" Timestamp="02/07/2019 16:05:11" Debug="false">
    <Text>HmiConvert: Starting conversion step &lt;Siemens.Simatic.Hmi.Globalization.Managers.Scan:Siemens.Simatic.Hmi.Utah.Globalization.TrefTextCategoryReplacer.TurnTRefCategoriesIntoRealOnes&gt;.</Text>
  </Details>
  <Details ServiceId="80" MessageId="30" Timestamp="02/07/2019 16:05:11" Debug="false">
    <Text>HmiConvert: Finished conversion step &lt;Siemens.Simatic.Hmi.Globalization.Managers.Scan:Siemens.Simatic.Hmi.Utah.Globalization.TrefTextCategoryReplacer.TurnTRefCategoriesIntoRealOnes&gt;.</Text>
  </Details>
  <Details ServiceId="80" MessageId="30" Timestamp="02/07/2019 16:05:11" Debug="false">
    <Text>HmiConvert: Starting conversion step &lt;Siemens.Simatic.Hmi.Globalization.Managers.Scan:Siemens.Simatic.Hmi.Utah.Globalization.CommentCategoryRepairer.RepairCommentCategoryLinks&gt;.</Text>
  </Details>
  <Details ServiceId="80" MessageId="30" Timestamp="02/07/2019 16:05:11" Debug="false">
    <Text>HmiConvert: Finished conversion step &lt;Siemens.Simatic.Hmi.Globalization.Managers.Scan:Siemens.Simatic.Hmi.Utah.Globalization.CommentCategoryRepairer.RepairCommentCategoryLinks&gt;.</Text>
  </Details>
  <Details ServiceId="80" MessageId="30" Timestamp="02/07/2019 16:05:11" Debug="false">
    <Text>HmiConvert: Starting conversion step &lt;Siemens.Simatic.Hmi.GraphX.GraphXManagers.Scan:Siemens.Simatic.Hmi.Utah.GraphX.PhaseConverter.DeleteTextFromGroups&gt;.</Text>
  </Details>
  <Details ServiceId="80" MessageId="30" Timestamp="02/07/2019 16:05:11" Debug="false">
    <Text>HmiConvert: Finished conversion step &lt;Siemens.Simatic.Hmi.GraphX.GraphXManagers.Scan:Siemens.Simatic.Hmi.Utah.GraphX.PhaseConverter.DeleteTextFromGroups&gt;.</Text>
  </Details>
  <Details ServiceId="80" MessageId="30" Timestamp="02/07/2019 16:05:11" Debug="false">
    <Text>HmiConvert: Starting conversion step &lt;Siemens.Simatic.Hmi.GraphX.GraphXManagers.Scan:Siemens.Simatic.Hmi.Utah.GraphX.PhaseConverter.RepairPointsCollectionOfScreenItems&gt;.</Text>
  </Details>
  <Details ServiceId="80" MessageId="30" Timestamp="02/07/2019 16:05:11" Debug="false">
    <Text>HmiConvert: Finished conversion step &lt;Siemens.Simatic.Hmi.GraphX.GraphXManagers.Scan:Siemens.Simatic.Hmi.Utah.GraphX.PhaseConverter.RepairPointsCollectionOfScreenItems&gt;.</Text>
  </Details>
  <Details ServiceId="80" MessageId="30" Timestamp="02/07/2019 16:05:11" Debug="false">
    <Text>HmiConvert: Starting conversion step &lt;Siemens.Simatic.Hmi.ScreenModules.Managers.Scan:Siemens.Simatic.Hmi.Utah.Modules.ScreenModules.PropertiesConverter.RepairAuthorizationPropertyInModuleDevice&gt;.</Text>
  </Details>
  <Details ServiceId="80" MessageId="30" Timestamp="02/07/2019 16:05:11" Debug="false">
    <Text>HmiConvert: Finished conversion step &lt;Siemens.Simatic.Hmi.ScreenModules.Managers.Scan:Siemens.Simatic.Hmi.Utah.Modules.ScreenModules.PropertiesConverter.RepairAuthorizationPropertyInModuleDevice&gt;.</Text>
  </Details>
  <Details ServiceId="80" MessageId="30" Timestamp="02/07/2019 16:05:11" Debug="false">
    <Text>HmiConvert: Starting conversion step &lt;Siemens.Simatic.Hmi.GraphX.Controls.Managers.Scan:Siemens.Simatic.Hmi.Utah.GraphX.Controls.ProDiagPhaseConverter.AddToolbarButtons&gt;.</Text>
  </Details>
  <Details ServiceId="80" MessageId="30" Timestamp="02/07/2019 16:05:11" Debug="false">
    <Text>HmiConvert: Finished conversion step &lt;Siemens.Simatic.Hmi.GraphX.Controls.Managers.Scan:Siemens.Simatic.Hmi.Utah.GraphX.Controls.ProDiagPhaseConverter.AddToolbarButtons&gt;.</Text>
  </Details>
  <Details ServiceId="80" MessageId="30" Timestamp="02/07/2019 16:05:11" Debug="false">
    <Text>HmiConvert: Starting conversion step &lt;Siemens.Simatic.Hmi.GraphX.Controls.Managers.Scan:Siemens.Simatic.Hmi.Utah.GraphX.Controls.ProDiagPhaseConverter.RepairToolbarButtons&gt;.</Text>
  </Details>
  <Details ServiceId="80" MessageId="30" Timestamp="02/07/2019 16:05:11" Debug="false">
    <Text>HmiConvert: Finished conversion step &lt;Siemens.Simatic.Hmi.GraphX.Controls.Managers.Scan:Siemens.Simatic.Hmi.Utah.GraphX.Controls.ProDiagPhaseConverter.RepairToolbarButtons&gt;.</Text>
  </Details>
  <Details ServiceId="80" MessageId="30" Timestamp="02/07/2019 16:05:11" Debug="false">
    <Text>HmiConvert: Starting conversion step &lt;Siemens.Simatic.Hmi.Tag.Managers.Scan:Siemens.Simatic.Hmi.Utah.Tag.RootTagConvertSynchronization.ResynchronizeRootTag&gt;.</Text>
  </Details>
  <Details ServiceId="80" MessageId="30" Timestamp="02/07/2019 16:05:11" Debug="false">
    <Text>HmiConvert: Finished conversion step &lt;Siemens.Simatic.Hmi.Tag.Managers.Scan:Siemens.Simatic.Hmi.Utah.Tag.RootTagConvertSynchronization.ResynchronizeRootTag&gt;.</Text>
  </Details>
  <Details ServiceId="80" MessageId="30" Timestamp="02/07/2019 16:05:11" Debug="false">
    <Text>HmiConvert: Finished conversion section.</Text>
  </Details>
  <MessageCell ServiceId="80" MessageId="30" MessageClass="Information" Timestamp="02/07/2019 16:05:13">
    <Number ServiceNumber="80" MessageNumber="30" />
    <Text FeedbackText="Aggiornamento in corso del nuovo progetto/della nuova biblioteca." />
    <Help HelpId="-1" />
  </MessageCell>
  <MessageCell ServiceId="80" MessageId="30" MessageClass="Information" Timestamp="02/07/2019 16:05:13">
    <Number ServiceNumber="80" MessageNumber="30" />
    <Text FeedbackText="Conversione delle informazioni dei riferimenti incrociati in corso." />
    <Help HelpId="-1" />
  </MessageCell>
  <MessageCell ServiceId="80" MessageId="30" MessageClass="Information" Timestamp="02/07/2019 16:05:14">
    <Number ServiceNumber="80" MessageNumber="30" />
    <Text FeedbackText="Creazione delle informazioni dei riferimenti incrociati riuscita." />
    <Help HelpId="-1" />
  </MessageCell>
  <MessageCell ServiceId="80" MessageId="30" MessageClass="Information" Timestamp="02/07/2019 16:05:14">
    <Number ServiceNumber="80" MessageNumber="30" />
    <Text FeedbackText="La conversione delle informazioni dei riferimenti incrociati è terminata." />
    <Help HelpId="-1" />
  </MessageCell>
  <MessageCell ServiceId="80" MessageId="30" MessageClass="Information" Timestamp="02/07/2019 16:05:14">
    <Number ServiceNumber="80" MessageNumber="30" />
    <Text FeedbackText="Pulizia dei metadati obsoleti." />
    <Help HelpId="-1" />
  </MessageCell>
  <Details ServiceId="80" MessageId="30" Timestamp="02/07/2019 16:05:20" Debug="false">
    <Text>Meta Package 'Siemens.Automation.DomainModel.LinkMaintainer' was deleted</Text>
  </Details>
  <Details ServiceId="80" MessageId="30" Timestamp="02/07/2019 16:05:20" Debug="false">
    <Text>Package container 'HW.HMI.Device.StandardPanels.TP1200Standard_14.0.10-HmiOnly' was deleted</Text>
  </Details>
  <Details ServiceId="80" MessageId="30" Timestamp="02/07/2019 16:05:20" Debug="false">
    <Text>Package container 'HW.HMI.Device.StandardPanels.TP1200Standard_14.0.10' was deleted</Text>
  </Details>
  <Details ServiceId="80" MessageId="30" Timestamp="02/07/2019 16:05:20" Debug="false">
    <Text>Package container 'HW.HMI.Device.StandardPanels.TP900Standard_14.0.10-HmiOnly' was deleted</Text>
  </Details>
  <Details ServiceId="80" MessageId="30" Timestamp="02/07/2019 16:05:20" Debug="false">
    <Text>Package container 'HW.HMI.Device.StandardPanels.TP900Standard_14.0.10' was deleted</Text>
  </Details>
  <Details ServiceId="80" MessageId="30" Timestamp="02/07/2019 16:05:20" Debug="false">
    <Text>Package container 'HW.HMI.Device.StandardPanels.TP700Standard_13.0.10' was deleted</Text>
  </Details>
  <Details ServiceId="80" MessageId="30" Timestamp="02/07/2019 16:05:20" Debug="false">
    <Text>Package container 'Siemens.Simatic.Lang.S7PSW.V14.0.1.0.NonMandatory' was deleted</Text>
  </Details>
  <Details ServiceId="80" MessageId="30" Timestamp="02/07/2019 16:05:20" Debug="false">
    <Text>Package container 'HW.ET200SP.CPU.MDD_151xSP-6ES7-512-1DK01-0AB0_2.0_14.0.0' was deleted</Text>
  </Details>
  <Details ServiceId="80" MessageId="30" Timestamp="02/07/2019 16:05:20" Debug="false">
    <Text>Package container 'HW.GSD.gsdml-v2.31-schneider-lexium32-20170713.xml.DEVICE_1.0.0' was deleted</Text>
  </Details>
  <Details ServiceId="80" MessageId="30" Timestamp="02/07/2019 16:05:20" Debug="false">
    <Text>Package container 'HW.GSD.gsdml-v2.2-smc-ex260-20110914.xml.DEVICE_1.0.0' was deleted</Text>
  </Details>
  <Details ServiceId="80" MessageId="30" Timestamp="02/07/2019 16:05:20" Debug="false">
    <Text>Package container 'Siemens.Simatic.Lang.S7PSW.V14.0.0.0.NonMandatory' was deleted</Text>
  </Details>
  <Details ServiceId="80" MessageId="30" Timestamp="02/07/2019 16:05:20" Debug="false">
    <Text>Package container 'HW.ET200SP.CPU.MDD_151xSP-6ES7-512-1DK01-0AB0_1.8_14.0.0' was deleted</Text>
  </Details>
  <Details ServiceId="80" MessageId="30" Timestamp="02/07/2019 16:05:20" Debug="false">
    <Text>Package container 'HW.ET200SP.SpecialModules.ServerModules.MDD_6ES7193-6PA00-0AA0_1.0_14.0.0' was deleted</Text>
  </Details>
  <Details ServiceId="80" MessageId="30" Timestamp="02/07/2019 16:05:20" Debug="false">
    <Text>Package container 'HW.ET200SP.TM.MDD_6ES7138-6AA00-0BA0_1.1_14.0.0' was deleted</Text>
  </Details>
  <Details ServiceId="80" MessageId="30" Timestamp="02/07/2019 16:05:20" Debug="false">
    <Text>Package container 'HW.ET200SP.SM_DO.MDD_6ES7132-6BF00-0BA0_1.1_14.0.0' was deleted</Text>
  </Details>
  <Details ServiceId="80" MessageId="30" Timestamp="02/07/2019 16:05:20" Debug="false">
    <Text>Package container 'HW.ET200SP.SM_DO.MDD_6ES7132-6BH00-0BA0_1.0_14.0.0' was deleted</Text>
  </Details>
  <Details ServiceId="80" MessageId="30" Timestamp="02/07/2019 16:05:20" Debug="false">
    <Text>Package container 'HW.ET200SP.SM_DI.MDD_6ES7131-6BF00-0BA0_1.1_14.0.0' was deleted</Text>
  </Details>
  <Details ServiceId="80" MessageId="30" Timestamp="02/07/2019 16:05:20" Debug="false">
    <Text>Package container 'HW.ET200SP.SM_DI.MDD_6ES7131-6BH00-0BA0_1.0_14.0.0' was deleted</Text>
  </Details>
  <Details ServiceId="80" MessageId="30" Timestamp="02/07/2019 16:05:20" Debug="false">
    <Text>Package container 'HW.HMI.Device.StandardPanels.TP700Standard_13.0.0' was deleted</Text>
  </Details>
  <Details ServiceId="80" MessageId="30" Timestamp="02/07/2019 16:05:20" Debug="false">
    <Text>Package container 'Siemens.Simatic.Tech.TechModules.V12.0.1.0' was deleted</Text>
  </Details>
  <Details ServiceId="80" MessageId="30" Timestamp="02/07/2019 16:05:20" Debug="false">
    <Text>Product version 'Siemens.Simatic.Portal:14.00.01.00' was deleted</Text>
  </Details>
  <Details ServiceId="80" MessageId="30" Timestamp="02/07/2019 16:05:20" Debug="false">
    <Text>Product version 'HW.GSD.gsdml-v2.31-schneider-lexium32-20170713.xml.DEVICE_1.0.0.Product:11.0.0.0.0' was deleted</Text>
  </Details>
  <Details ServiceId="80" MessageId="30" Timestamp="02/07/2019 16:05:20" Debug="false">
    <Text>Product version 'HW.GSD.gsdml-v2.2-smc-ex260-20110914.xml.DEVICE_1.0.0.Product:11.0.0.0.0' was deleted</Text>
  </Details>
  <Details ServiceId="80" MessageId="30" Timestamp="02/07/2019 16:05:20" Debug="false">
    <Text>Product version 'Siemens.Simatic.Tech.TechModules:14.00.00.00' was deleted</Text>
  </Details>
  <Details ServiceId="80" MessageId="30" Timestamp="02/07/2019 16:05:20" Debug="false">
    <Text>Product version 'Siemens.Simatic.Hmi.Comfort:14.00.00.00' was deleted</Text>
  </Details>
  <Details ServiceId="80" MessageId="30" Timestamp="02/07/2019 16:05:20" Debug="false">
    <Text>Product version 'Siemens.Simatic.Hmi.Comfort:14.00.01.00' was deleted</Text>
  </Details>
  <Details ServiceId="80" MessageId="30" Timestamp="02/07/2019 16:05:20" Debug="false">
    <Text>Product version 'Siemens.Simatic.STEP7.Professional:14.00.00.00' was deleted</Text>
  </Details>
  <Details ServiceId="80" MessageId="30" Timestamp="02/07/2019 16:05:20" Debug="false">
    <Text>Product version 'Siemens.Simatic.Hmi.Basic:14.00.01.00' was deleted</Text>
  </Details>
  <MessageCell ServiceId="80" MessageId="30" MessageClass="Information" Timestamp="02/07/2019 16:05:20">
    <Number ServiceNumber="80" MessageNumber="30" />
    <Text FeedbackText="Salvataggio in corso del progetto aggiornato/della biblioteca aggiornata." />
    <Help HelpId="-1" />
  </MessageCell>
  <MessageCell ServiceId="80" MessageId="30" MessageClass="Information" Timestamp="02/07/2019 16:05:21">
    <Number ServiceNumber="80" MessageNumber="30" />
    <Text FeedbackText="Salvataggio in corso del progetto aggiornato/della biblioteca aggiornata." />
    <Help HelpId="-1" />
  </MessageCell>
  <MessageCell ServiceId="Automation-ObjectFrame-Feedbacks" MessageId="ConversionInfoTabProjectSucceeded" MessageClass="Success" Timestamp="02/07/2019 16:05:21">
    <Number ServiceNumber="80" MessageNumber="34" />
    <Text FeedbackText="Il progetto 'Z:\Archivio lavori\M738 FD120 Samson\01 Software\PLC\C738.a FD120 Samson\System\PEData.plf' è stato aggiornato e salvato come progetto 'Z:\Archivio lavori\M738 FD120 Samson\01 Software\PLC\C738.a FD120 Samson_V15\System\PEData.plf'." />
    <Help HelpId="-1" HelpFile="" />
  </MessageCell>
</LogFile>